\relax 
\providecommand\hyper@newdestlabel[2]{}
\providecommand\HyperFirstAtBeginDocument{\AtBeginDocument}
\HyperFirstAtBeginDocument{\ifx\hyper@anchor\@undefined
\global\let\oldcontentsline\contentsline
\gdef\contentsline#1#2#3#4{\oldcontentsline{#1}{#2}{#3}}
\global\let\oldnewlabel\newlabel
\gdef\newlabel#1#2{\newlabelxx{#1}#2}
\gdef\newlabelxx#1#2#3#4#5#6{\oldnewlabel{#1}{{#2}{#3}}}
\AtEndDocument{\ifx\hyper@anchor\@undefined
\let\contentsline\oldcontentsline
\let\newlabel\oldnewlabel
\fi}
\fi}
\global\let\hyper@last\relax 
\gdef\HyperFirstAtBeginDocument#1{#1}
\providecommand\HyField@AuxAddToFields[1]{}
\providecommand\HyField@AuxAddToCoFields[2]{}
\newlabel{FirstPage}{{}{1}{}{section*.1}{}}
\@writefile{toc}{\contentsline {title}{Entanglement of the vacuum witnessed by the accelerating observers}{1}{section*.2}}
\@writefile{toc}{\contentsline {abstract}{Abstract}{1}{section*.1}}
\@writefile{toc}{\contentsline {section}{\numberline {I}Introduction}{1}{section*.3}}
\newlabel{theframework}{{II}{1}{}{section*.4}{}}
\@writefile{toc}{\contentsline {section}{\numberline {II}The framework}{1}{section*.4}}
\@writefile{toc}{\contentsline {subsection}{\numberline {A}Outline}{1}{section*.5}}
\newlabel{SP}{{1}{1}{}{equation.2.1}{}}
\newlabel{phipsiexpa}{{2}{1}{}{equation.2.2}{}}
\newlabel{nooverlap}{{3}{1}{}{equation.2.3}{}}
\@writefile{toc}{\contentsline {subsection}{\numberline {B}Gaussian states and the channel}{1}{section*.6}}
\newlabel{QO}{{5}{2}{}{equation.2.5}{}}
\newlabel{CMFM}{{6}{2}{}{equation.2.6}{}}
\newlabel{FM}{{6a}{2}{}{equation.2.6alph1}{}}
\newlabel{CM}{{6b}{2}{}{equation.2.6alph2}{}}
\newlabel{GC}{{7}{2}{}{equation.2.7}{}}
\newlabel{GCFM}{{7a}{2}{}{equation.2.7alph1}{}}
\newlabel{GCCM}{{7b}{2}{}{equation.2.7alph2}{}}
\newlabel{compchannel}{{III}{2}{}{section*.7}{}}
\@writefile{toc}{\contentsline {section}{\numberline {III}Computing the Gaussian quantum channel}{2}{section*.7}}
\@writefile{toc}{\contentsline {subsection}{\numberline {A}Computing matrix $M$}{2}{section*.8}}
\newlabel{M}{{8}{2}{}{equation.3.8}{}}
\@writefile{toc}{\contentsline {subsection}{\numberline {B}Computing noise matrix $N$}{2}{section*.9}}
\newlabel{rincoor}{{9}{3}{}{equation.3.9}{}}
\newlabel{w}{{10}{3}{}{equation.3.10}{}}
\newlabel{decb}{{12}{3}{}{equation.3.12}{}}
\newlabel{ddecb}{{13}{3}{}{equation.3.13}{}}
\newlabel{N}{{15}{3}{}{equation.3.15}{}}
\newlabel{noise}{{16}{3}{}{equation.3.16}{}}
\newlabel{N1D0}{{17}{3}{}{equation.3.17}{}}
\newlabel{N12D0}{{19}{3}{}{equation.3.19}{}}
\newlabel{N12Dnon0}{{20}{4}{}{equation.3.20}{}}
\newlabel{N12D0par}{{21}{4}{}{equation.3.21}{}}
\newlabel{N12Dnon0par}{{22}{4}{}{equation.3.22}{}}
\@writefile{toc}{\contentsline {section}{\numberline {IV}$a$-independence of the channel}{4}{section*.10}}
\newlabel{ain}{{IV}{4}{}{section*.10}{}}
\newlabel{aeta}{{23}{4}{}{equation.4.23}{}}
\citation{Gerardo2004}
\newlabel{modechoice}{{V}{5}{}{section*.11}{}}
\@writefile{toc}{\contentsline {section}{\numberline {V}The choice of modes}{5}{section*.11}}
\newlabel{nonegf}{{27}{5}{}{equation.5.27}{}}
\newlabel{modephi}{{28}{5}{}{equation.5.28}{}}
\newlabel{modepsi}{{29}{5}{}{equation.5.29}{}}
\newlabel{vacent}{{VI}{5}{}{section*.12}{}}
\@writefile{toc}{\contentsline {section}{\numberline {VI}Entanglement of the vacuum}{5}{section*.12}}
\newlabel{vacuumout}{{31}{5}{}{equation.6.31}{}}
\citation{LD1}
\@writefile{lof}{\contentsline {figure}{\numberline {1}{\ignorespaces Comparison between the spatial modes $\phi $ and $\psi $ for the following choice of parameters: $ {\cal  A} =0.1$, $L_{||}=L_\perp =2$, $\Omega _0=4.71$, $m=0.1$, $\kappa _\perp =2$, along the $z$-axis at $x=y=1$.}}{6}{figure.1}}
\newlabel{picmodes1}{{1}{6}{Comparison between the spatial modes $\phi $ and $\psi $ for the following choice of parameters: $\A =0.1$, $L_{||}=L_\pe =2$, $\Omega _0=4.71$, $m=0.1$, $\kappa _\pe =2$, along the $z$-axis at $x=y=1$}{figure.1}{}}
\newlabel{logneg}{{32}{6}{}{equation.6.32}{}}
\newlabel{plotaa}{{2}{6}{}{figure.2}{}}
\@writefile{lof}{\contentsline {figure}{\numberline {2}{\ignorespaces Logarithmic negativity of the Minkowski vacuum for two counter-accelerated modes, as a function of their proper accelerations for $D=0$. We have chosen $L_{||}=L_\perp =2$, $m=0.1$, $\Omega _0=4.71$ and $\kappa _\perp =2$.}}{6}{figure.2}}
\newlabel{D0_vs_Accelerations1}{{2}{6}{Logarithmic negativity of the Minkowski vacuum for two counter-accelerated modes, as a function of their proper accelerations for $D=0$. We have chosen $L_{||}=L_\pe =2$, $m=0.1$, $\Omega _0=4.71$ and $\kappa _\pe =2$}{figure.2}{}}
\newlabel{concl}{{VII}{6}{}{section*.13}{}}
\@writefile{toc}{\contentsline {section}{\numberline {VII}Conclusions}{6}{section*.13}}
\newlabel{plotlo}{{3}{7}{}{figure.3}{}}
\@writefile{lof}{\contentsline {figure}{\numberline {3}{\ignorespaces Logarithmic negativity of the Minkowski vacuum for two counter-accelerated modes, as a function of $L_{||}$ and $\Omega _0$ for $D=0$. We have chosen $ {\cal  A} _\text  {I}= {\cal  A} _\text  {II}=0.1$, $L_\perp =2$, $m=0.1$, and $\kappa _\perp =2$.}}{7}{figure.3}}
\newlabel{D0_vs_Accelerations2}{{3}{7}{Logarithmic negativity of the Minkowski vacuum for two counter-accelerated modes, as a function of $L_{||}$ and $\Omega _0$ for $D=0$. We have chosen $\A _\text {I}=\A _\text {II}=0.1$, $L_\pe =2$, $m=0.1$, and $\kappa _\pe =2$}{figure.3}{}}
\newlabel{plotkl}{{4}{7}{}{figure.4}{}}
\@writefile{lof}{\contentsline {figure}{\numberline {4}{\ignorespaces Logarithmic negativity of the Minkowski vacuum for two counter-accelerated modes, as a function of $L_\perp $ and $\kappa _\perp $ for $D=0$. We have chosen $ {\cal  A} _\text  {I}= {\cal  A} _\text  {II}=0.1$, $L_{||}=2$, $m=0.1$, $\Omega _0=4.71$.}}{7}{figure.4}}
\newlabel{D0_vs_Accelerations}{{4}{7}{Logarithmic negativity of the Minkowski vacuum for two counter-accelerated modes, as a function of $L_\pe $ and $\kappa _\pe $ for $D=0$. We have chosen $\A _\text {I}=\A _\text {II}=0.1$, $L_{||}=2$, $m=0.1$, $\Omega _0=4.71$}{figure.4}{}}
\@writefile{toc}{\contentsline {section}{\numberline {}Acknowledgments}{7}{section*.14}}
\@writefile{toc}{\appendix }
\newlabel{computingnoise}{{A}{7}{}{section*.15}{}}
\@writefile{toc}{\contentsline {section}{\numberline {A}Computing the noise matrix $N$}{7}{section*.15}}
\@writefile{toc}{\contentsline {subsection}{\numberline {1}When Rindler wedges have a common apex ($D=0$)}{8}{section*.16}}
\newlabel{D0}{{A\tmspace  +\thinmuskip {.1667em}1}{8}{}{section*.16}{}}
\newlabel{bb9}{{A3}{8}{}{equation.A.3}{}}
\newlabel{sigma1318}{{A14}{8}{}{equation.A.14}{}}
\@writefile{toc}{\contentsline {subsection}{\numberline {2}When Rindler wedges do not have a common apex ($D\not =0$)}{8}{section*.17}}
\newlabel{Dnon0}{{A\tmspace  +\thinmuskip {.1667em}2}{8}{}{section*.17}{}}
\newlabel{modifiedbogos}{{A24}{9}{}{equation.A.24}{}}
\bibcite{Unruh1976}{{1}{}{{}}{{}}}
\bibcite{BirrelDavies}{{2}{}{{}}{{}}}
\bibcite{Fuentes2005}{{3}{}{{}}{{}}}
\bibcite{Bruschi2010}{{4}{}{{}}{{}}}
\bibcite{LD3}{{5}{}{{}}{{}}}
\bibcite{papers}{{6}{}{{}}{{}}}
\bibcite{LD1}{{7}{}{{}}{{}}}
\bibcite{LD2}{{8}{}{{}}{{}}}
\bibcite{Downes2013}{{9}{}{{}}{{}}}
\bibcite{Holevo2001}{{10}{}{{}}{{}}}
\bibcite{Gerardo2014}{{11}{}{{}}{{}}}
\bibcite{Salton2015}{{12}{}{{}}{{}}}
\bibcite{Crispino2008}{{13}{}{{}}{{}}}
\bibcite{Dragan2011}{{14}{}{{}}{{}}}
\bibcite{Reeh1961}{{15}{}{{}}{{}}}
\bibcite{Gerardo2004}{{16}{}{{}}{{}}}
\bibcite{NIST}{{17}{}{{}}{{}}}
\bibcite{Nielsen}{{18}{}{{}}{{}}}
\bibcite{Marian2012}{{19}{}{{}}{{}}}
\bibcite{Holevo2007}{{20}{}{{}}{{}}}
\bibcite{Weedbrook2012}{{21}{}{{}}{{}}}
\bibcite{Lupo2011}{{22}{}{{}}{{}}}
\bibcite{Holevo1999}{{23}{}{{}}{{}}}
\bibcite{Pirandola2009}{{24}{}{{}}{{}}}
\bibcite{Agata2015}{{25}{}{{}}{{}}}
\bibcite{Mehdi2015}{{26}{}{{}}{{}}}
\bibcite{Braunstein1998}{{27}{}{{}}{{}}}
\bibcite{Nico2013}{{28}{}{{}}{{}}}
\bibdata{3D_v1Notes}
\bibstyle{apsrev4-1}
\citation{REVTEX41Control}
\citation{apsrev41Control}
\providecommand\NAT@force@numbers{}\NAT@force@numbers
\@writefile{toc}{\contentsline {section}{\numberline {}References}{10}{section*.18}}
\@writefile{toc}{\contentsline {section}{References}{10}{section*.18}}
\newlabel{LastBibItem}{{28}{10}{}{section*.18}{}}
\newlabel{LastPage}{{}{10}{}{}{}}
